

 <DUALSPHYSICS4> Copyright (c) 2019 by
 Dr Jose M. Dominguez, Dr Alejandro Crespo,
 Prof. Moncho Gomez Gesteira,  Prof. Benedict Rogers,
 Dr Georgios Fourtakas, Prof. Peter Stansby, Dr Ricardo Canelas,
 Dr Renato Vacondio, Dr Corrado Altomare, Dr Angelo Tafuni,
 Orlando Garcia-Feal, Dr Jose Gonzalez Cao

 EPHYSLAB Environmental Physics Laboratory, Universidade de Vigo
 School of Mechanical, Aerospace and Civil Engineering, University of Manchester

 DualSPHysics is free software: you can redistribute it and/or
 modify it under the terms of the GNU Lesser General Public License
 as published by the Free Software Foundation, either version 2.1 of
 the License, or (at your option) any later version.

 DualSPHysics is distributed in the hope that it will be useful,
 but WITHOUT ANY WARRANTY; without even the implied warranty of
 MERCHANTABILITY or FITNESS FOR A PARTICULAR PURPOSE.  See the
 GNU Lesser General Public License for more details.

 You should have received a copy of the GNU Lesser General Public License
 along with DualSPHysics. If not, see <http://www.gnu.org/licenses/>.


DualSPHysics4 [Symmetry] v4.4.053 (19-01-2020)
===============================================
[Select CUDA Device]
[CUDA Capable device(s)]
  Detected 1 CUDA Capable device(s)
  CUDA Driver Version / Runtime Version: 10.2 / 9.2
 
Device 0: "GeForce RTX 2070"
  CUDA Capability Major....: 7.5
  Global memory............: 7982 MBytes
  CUDA Cores...............: 2304 (36 Multiprocessors,  64 CUDA Cores/MP)
  GPU Max Clock rate.......: 1620 MHz (1.62 GHz)
  Memory Clock rate........: 7001 Mhz
  Memory Bus Width.........: 256-bit
  L2 Cache Size............: 4096 KBytes
  Constant memory..........: 64 KBytes
  Shared memory per block..: 48 KBytes
  Registers per block......: 65536
  Maximum threads per MP...: 1024
  Maximum threads per block: 1024
  Concurrent copy and kernel execution....: Yes with 3 copy engine(s)
  Run time limit on kernels...............: Yes
  Integrated GPU sharing Host Memory......: No
  Support host page-locked memory mapping.: Yes
  Device has ECC support..................: Disabled
  Device supports Unified Addressing (UVA): Yes
  Device PCI (Domain / Bus / location)....: 0 / 1 / 0
  Device supports P2P and RDMA............: Yes
  Device supports P2P from/to GPUs........: 
 
[GPU Hardware]
Device default: 0  "GeForce RTX 2070"
Compute capability: 7.5
Memory global: 7982 MB
Memory shared: 49152 Bytes
[Initialising JSphGpuSingle  18-04-2020 12:28:52]
ProgramFile=".../bin/linux/DualSPHysics4.4_linux64"
ExecutionDir=".../Software/phypervisor/mandelbulb-in-a-box"
XmlFile=".../mandelbulb-in-a-box/mandel_uniform_flow_out/mandel_uniform_flow.xml"
OutputDir=".../phypervisor/mandelbulb-in-a-box/mandel_uniform_flow_out"
OutputDataDir=".../mandelbulb-in-a-box/mandel_uniform_flow_out/data"
**Basic case configuration is loaded
**Special case configuration is loaded
Loading initial state of particles...
Loaded particles: 8139
MapRealPos(border)=(-1.05,-1.00866,-1.00866)-(1.05,1.00866,1.00866)
MapRealPos(final)=(-1.05,-1.1,-1.1)-(1.05,2.2,2.2)
**Initial state of particles is loaded
**3D-Simulation parameters:
CaseName="mandel_uniform_flow"
RunName="mandel_uniform_flow"
Symmetry=False
SavePosDouble=False
SvTimers=True
Boundary="DBC"
StepAlgorithm="Symplectic"
Kernel="Wendland"
Viscosity="Artificial"
  Visco=0.010000
  ViscoBoundFactor=0.000000
DensityDiffusion="None"
Shifting="None"
RigidAlgorithm="None"
FloatingCount=0
CaseNp=8139
CaseNbound=1307
CaseNfixed=1307
CaseNmoving=0
CaseNfloat=0
CaseNfluid=6832
PeriodicActive="Axis-X"
PeriodicXinc=(-2.1,0,0)
Dx=0.1
H=0.173205
CoefficientH=1
CteB=645778.312500
Gamma=7.000000
RhopZero=1000.000000
Cs0=67.2343
CFLnumber=0.200000
DtIni=0.00257614
DtMin=0.000128807
DtAllParticles=False
MassFluid=1.000000
MassBound=1.000000
Awen (Wendland)=80.401802
Bwen (Wendland)=-2321.011230
TimeMax=2
TimePart=0.1
Gravity=(0.000000,0.000000,-9.810000)
NpMinimum=1307
RhopOut=True
RhopOutMin=700.000000
RhopOutMax=1300.000000
WrnPartsOut=True
**Requested GPU memory for 8149 particles: 1.3 MB (0 times).
CellMode="2H"
Hdiv=1
MapCells=(9,10,10)
DomCells=(9,10,10)
DomCellCode="12_11_10"
PosCellCode="13_10_9 (8192,1024,512)"
 
BlockSize calculation mode: Fixed.
  BsForcesBound=128 (40 regs)
  BsForcesFluid=128 (55 regs)
 
**JSphGpu: Requesting gpu memory for 8940 particles: 1.4 MB.
**JSphGpu: Requesting gpu memory for 10456 particles: 1.7 MB.
**CellDiv: Requested gpu memory for 10456 particles: 0.1 MB.
**CellDiv: Requested gpu memory for 576 cells (CellMode=2H): 0.0 MB.
 
RunMode="Pos-Cell - Single-Gpu"
 
Particle summary:
  Fixed....: 1307  id:(0-1306)   MKs:2 (12,31)
  Moving...: 0
  Floating.: 0
  Fluid....: 6832  id:(1307-8138)   MKs:1 (1)

Total particles: 8139 (bound=1307 (fx=1307 mv=0 ft=0) fluid=6832)
Total MK blocks: 3 (bound=2 (fx=2 mv=0 ft=0) fluid=1)
 
Relaxation Zones configuration:
RZ-Uniform_0
  Velocity direction: (1,0,0)
  Initial velocity: 1  (variable)
  Center: (-0.85,0,0) (width: 0.2)
  Start time: 0  (end: 1.79769e+308)
  Function coefficients: psi:0.1 beta:4 (sub:0.00119066 div:0.758707)
  CoefDt: 1000
 
Allocated memory in CPU: 987120 (0.94 MB)
Allocated memory in GPU: 1851544 (1.77 MB)
Part_0000        8139 particles successfully stored

[Initialising simulation (ei9lnqfv)  18-04-2020 12:28:52]
PART       PartTime      TotalSteps    Steps    Time/Sec   Finish time        
=========  ============  ============  =======  =========  ===================
**JSphGpu: Requesting gpu memory for 12356 particles: 2.0 MB.
**CellDiv: Requested gpu memory for 12356 particles: 0.1 MB.
**CellDiv: Requested gpu memory for 576 cells (CellMode=2H): 0.0 MB.
**JSphGpu: Requesting gpu memory for 12974 particles: 2.1 MB.
**CellDiv: Requested gpu memory for 12974 particles: 0.1 MB.
**CellDiv: Requested gpu memory for 576 cells (CellMode=2H): 0.0 MB.
Part_0001      0.100079           194      194       3.95  18-04-2020 12:28:59
Part_0002      0.200321           399      205       3.62  18-04-2020 12:28:58
Part_0003      0.300353           608      209       3.74  18-04-2020 12:28:59
Part_0004      0.400020           822      214       3.73  18-04-2020 12:28:59
**JSphGpu: Requesting gpu memory for 13623 particles: 2.2 MB.
**CellDiv: Requested gpu memory for 13623 particles: 0.1 MB.
**CellDiv: Requested gpu memory for 576 cells (CellMode=2H): 0.0 MB.
Part_0005      0.500313          1037      215       3.76  18-04-2020 12:28:59
Part_0006      0.600239          1253      216       3.75  18-04-2020 12:28:59
Part_0007      0.700062          1472      219       3.76  18-04-2020 12:28:58
Part_0008      0.800415          1691      219       3.74  18-04-2020 12:28:59
Part_0009      0.900118          1904      213       3.65  18-04-2020 12:28:59
Part_0010      1.000461          2119      215       3.67  18-04-2020 12:28:58
Part_0011      1.100089          2332      213       3.62  18-04-2020 12:28:59
Part_0012      1.200451          2545      213       3.58  18-04-2020 12:28:58
Part_0013      1.300003          2758      213       3.69  18-04-2020 12:28:58
